\relax 
\select@language{croatian}
\@writefile{toc}{\select@language{croatian}}
\@writefile{lof}{\select@language{croatian}}
\@writefile{lot}{\select@language{croatian}}
\citation{1}
\citation{2}
\citation{2}
\citation{2}
\citation{2}
\@writefile{toc}{\contentsline {section}{\numberline {0.1}Introduction}{1}}
\@writefile{toc}{\contentsline {subsection}{\numberline {0.1.1}Human Genome Organization}{1}}
\citation{2}
\@writefile{toc}{\contentsline {subsubsection}{Human Nuclear Genome}{2}}
