\relax 
\select@language{english}
\@writefile{toc}{\select@language{english}}
\@writefile{lof}{\select@language{english}}
\@writefile{lot}{\select@language{english}}
\citation{3}
\citation{1}
\citation{1}
\citation{3}
\citation{2}
\citation{2}
\@writefile{toc}{\contentsline {section}{\numberline {0.1}Introduction}{2}}
\@writefile{toc}{\contentsline {subsection}{\numberline {0.1.1}Human Genome Organization}{2}}
\citation{2}
\citation{2}
\citation{2}
\citation{2}
\@writefile{toc}{\contentsline {subsubsection}{Human Nuclear Genome}{3}}
\citation{2}
\citation{2}
\citation{2}
\citation{2}
\citation{2}
\citation{6}
\citation{5}
\citation{5}
\citation{6}
\@writefile{toc}{\contentsline {subsection}{\numberline {0.1.2}Epigenetics}{5}}
\@writefile{lot}{\contentsline {table}{\numberline {1}{\ignorespaces Table of known DNA modifications}}{6}}
\newlabel{table:1}{{1}{6}}
\@writefile{lot}{\contentsline {table}{\numberline {2}{\ignorespaces table of known histone modifications}}{6}}
\newlabel{table:2}{{2}{6}}
\citation{6}
\citation{6}
\citation{6}
\citation{6}
\citation{7}
\citation{7}
\@writefile{toc}{\contentsline {subsubsection}{Epigenetics and cancer}{7}}
\citation{7}
\citation{7}
\citation{8}
\citation{8}
\@writefile{toc}{\contentsline {subsubsection}{Epigenetics and age-related diseases}{8}}
\@writefile{toc}{\contentsline {subsection}{\numberline {0.1.3}DNA methylation}{8}}
\citation{7}
\@writefile{lof}{\contentsline {figure}{\numberline {1}{\ignorespaces The chemical structure of S-adenosyl methionine (SAM) - a methyl donor during the methylation of a cysteine residue}}{9}}
\newlabel{fig:1}{{1}{9}}
\citation{7}
\citation{7}
\citation{7}
\citation{7}
\@writefile{lof}{\contentsline {figure}{\numberline {2}{\ignorespaces During DNA methylation, a DNA methyltransferase catalyzes the transfer of a methyl residue from the sulfur atom of SAM to the 5-carbon atom of a cytosine base. In the figure, R1 represents the rest of the DNA molecule to which the cytosine is attached, and R2 and R3 represent the rest of SAM.}}{10}}
\newlabel{fig:2}{{2}{10}}
\@writefile{toc}{\contentsline {subsubsection}{Changes in the DNA methylome with age}{10}}
\citation{8}
\citation{10}
\@writefile{toc}{\contentsline {subsubsection}{DNA methylation maintenance}{11}}
\@writefile{toc}{\contentsline {subsection}{\numberline {0.1.4}Enzymology of Dnmt1}{11}}
